Thematic Maps
…
Use ggplot2::geom_sf() to plot African countries, only.

fill each of them according to their population (pop_est):

Code

# WRITE YOUR CODE HERE
library(sf)
library(afrilearndata)

africountries %>%
  mutate(geometry = st_as_text(geometry)) %>% 
  as_tibble()

# A tibble: 51 × 12
   name       name_long pop_est gdp_md_est lastcensus income_grp iso_a3 geometry
   <chr>      <chr>       <dbl>      <dbl>      <dbl> <chr>      <chr>  <chr>   
 1 Angola     Angola     1.28e7     110300       1970 3. Upper … AGO    MULTIPO…
 2 Burundi    Burundi    8.99e6       3102       2008 5. Low in… BDI    MULTIPO…
 3 Benin      Benin      8.79e6      12830       2002 5. Low in… BEN    MULTIPO…
 4 Burkina F… Burkina …  1.57e7      17820       2006 5. Low in… BFA    MULTIPO…
 5 Botswana   Botswana   1.99e6      27060       2011 3. Upper … BWA    MULTIPO…
 6 Central A… Central …  4.51e6       3198       2003 5. Low in… CAF    MULTIPO…
 7 Côte d'Iv… Côte d'I…  2.06e7      33850       1998 4. Lower … CIV    MULTIPO…
 8 Cameroon   Cameroon   1.89e7      42750       2005 4. Lower … CMR    MULTIPO…
 9 Dem. Rep.… Democrat…  6.87e7      20640       1984 5. Low in… COD    MULTIPO…
10 Congo      Republic…  4.01e6      15350       2007 4. Lower … COG    MULTIPO…
# ℹ 41 more rows
# ℹ 4 more variables: name_fr <chr>, name_pt <chr>, name_af <chr>,
#   name_sw <chr>
…
• Use the africapitals dataset, it contains the location of capital cities in the African continent.

Use ggplot2::geom_sf() to plot these locations,

and size them according to their number of inhabitants:

Code

library(sf)
library(afrilearndata)

africapitals %>% as_tibble()

# A tibble: 51 × 5
   capitalname  countryname                  pop iso3c       geometry
   <chr>        <chr>                      <int> <chr>    <POINT [°]>
 1 Abuja        Nigeria                   178462 NGA      (7.17 9.18)
 2 Accra        Ghana                    2029143 GHA      (-0.2 5.56)
 3 Addis Abeba  Ethiopia                 2823167 ETH     (38.74 9.03)
 4 Algiers      Algeria                  2029936 DZA     (3.04 36.77)
 5 Antananarivo Madagascar               1463754 MDG   (47.51 -18.89)
 6 Asmara       Eritrea                   578860 ERI    (38.94 15.33)
 7 Bamako       Mali                     1342519 MLI    (-7.99 12.65)
 8 Bangui       Central African Republic  547668 CAF     (18.56 4.36)
 9 Banjul       Gambia                     34388 GMB    (-16.6 13.46)
10 Bissau       Guinea-Bissau             404119 GNB    (-15.6 11.87)
# ℹ 41 more rows
…
